module github.com/axiomhq/cli

go 1.18

require (
	github.com/AlecAivazis/survey/v2 v2.3.4
	github.com/MakeNowJust/heredoc v1.0.0
	github.com/araddon/dateparse v0.0.0-20210429162001-6b43995a97de
	github.com/axiomhq/axiom-go v0.10.0
	github.com/axiomhq/pkg v0.3.0
	github.com/briandowns/spinner v1.18.1
	github.com/cli/cli v1.14.0
	github.com/cli/safeexec v1.0.0
	github.com/cpuguy83/go-md2man v1.0.10
	github.com/dustin/go-humanize v1.0.0
	github.com/golangci/golangci-lint v1.46.2
	github.com/google/shlex v0.0.0-20191202100458-e7afc7fbc510
	github.com/goreleaser/goreleaser v1.9.2
	github.com/kelseyhightower/envconfig v1.4.0
	github.com/klauspost/compress v1.15.5
	github.com/mattn/go-colorable v0.1.12
	github.com/mattn/go-isatty v0.0.14
	github.com/mgutz/ansi v0.0.0-20200706080929-d51e80ef957d
	github.com/muesli/reflow v0.2.0
	github.com/muesli/termenv v0.11.0
	github.com/nwidger/jsoncolor v0.3.0
	github.com/pelletier/go-toml v1.9.5
	github.com/pkg/browser v0.0.0-20210911075715-681adbf594b8
	github.com/spf13/cobra v1.4.0
	github.com/spf13/pflag v1.0.5
	github.com/stretchr/testify v1.7.1
	golang.org/x/term v0.0.0-20220526004731-065cf7ba2467
	golang.org/x/text v0.3.7
	golang.org/x/tools v0.1.11-0.20220316014157-77aa08bb151a
	gotest.tools/gotestsum v1.8.1
)

require (
	4d63.com/gochecknoglobals v0.1.0 // indirect
	cloud.google.com/go v0.100.2 // indirect
	cloud.google.com/go/compute v1.5.0 // indirect
	cloud.google.com/go/iam v0.3.0 // indirect
	cloud.google.com/go/kms v1.1.0 // indirect
	cloud.google.com/go/storage v1.18.2 // indirect
	code.gitea.io/sdk/gitea v0.15.1 // indirect
	github.com/AlekSi/pointer v1.2.0 // indirect
	github.com/Antonboom/errname v0.1.6 // indirect
	github.com/Antonboom/nilnil v0.1.1 // indirect
	github.com/Azure/azure-pipeline-go v0.2.3 // indirect
	github.com/Azure/azure-sdk-for-go v60.2.0+incompatible // indirect
	github.com/Azure/azure-storage-blob-go v0.14.0 // indirect
	github.com/Azure/go-autorest v14.2.0+incompatible // indirect
	github.com/Azure/go-autorest/autorest v0.11.23 // indirect
	github.com/Azure/go-autorest/autorest/adal v0.9.18 // indirect
	github.com/Azure/go-autorest/autorest/azure/auth v0.5.10 // indirect
	github.com/Azure/go-autorest/autorest/azure/cli v0.4.4 // indirect
	github.com/Azure/go-autorest/autorest/date v0.3.0 // indirect
	github.com/Azure/go-autorest/autorest/to v0.4.0 // indirect
	github.com/Azure/go-autorest/autorest/validation v0.3.1 // indirect
	github.com/Azure/go-autorest/logger v0.2.1 // indirect
	github.com/Azure/go-autorest/tracing v0.6.0 // indirect
	github.com/BurntSushi/toml v1.1.0 // indirect
	github.com/DisgoOrg/disgohook v1.4.4 // indirect
	github.com/DisgoOrg/log v1.1.2 // indirect
	github.com/DisgoOrg/restclient v1.2.8 // indirect
	github.com/Djarvur/go-err113 v0.0.0-20210108212216-aea10b59be24 // indirect
	github.com/GaijinEntertainment/go-exhaustruct/v2 v2.1.0 // indirect
	github.com/Masterminds/goutils v1.1.1 // indirect
	github.com/Masterminds/semver v1.5.0 // indirect
	github.com/Masterminds/semver/v3 v3.1.1 // indirect
	github.com/Masterminds/sprig v2.22.0+incompatible // indirect
	github.com/Microsoft/go-winio v0.5.1 // indirect
	github.com/OpenPeeDeeP/depguard v1.1.0 // indirect
	github.com/ProtonMail/go-crypto v0.0.0-20211112122917-428f8eabeeb3 // indirect
	github.com/acomagu/bufpipe v1.0.3 // indirect
	github.com/alecthomas/jsonschema v0.0.0-20211209230136-e2b41affa5c1 // indirect
	github.com/alexkohler/prealloc v1.0.0 // indirect
	github.com/apex/log v1.9.0 // indirect
	github.com/ashanbrown/forbidigo v1.3.0 // indirect
	github.com/ashanbrown/makezero v1.1.1 // indirect
	github.com/atc0005/go-teams-notify/v2 v2.6.1 // indirect
	github.com/aws/aws-sdk-go v1.42.24 // indirect
	github.com/aws/aws-sdk-go-v2 v1.11.2 // indirect
	github.com/aws/aws-sdk-go-v2/config v1.11.0 // indirect
	github.com/aws/aws-sdk-go-v2/credentials v1.6.4 // indirect
	github.com/aws/aws-sdk-go-v2/feature/ec2/imds v1.8.2 // indirect
	github.com/aws/aws-sdk-go-v2/internal/configsources v1.1.2 // indirect
	github.com/aws/aws-sdk-go-v2/internal/endpoints/v2 v2.0.2 // indirect
	github.com/aws/aws-sdk-go-v2/internal/ini v1.3.2 // indirect
	github.com/aws/aws-sdk-go-v2/service/internal/presigned-url v1.5.2 // indirect
	github.com/aws/aws-sdk-go-v2/service/kms v1.11.1 // indirect
	github.com/aws/aws-sdk-go-v2/service/sso v1.6.2 // indirect
	github.com/aws/aws-sdk-go-v2/service/sts v1.11.1 // indirect
	github.com/aws/smithy-go v1.9.0 // indirect
	github.com/beorn7/perks v1.0.1 // indirect
	github.com/bkielbasa/cyclop v1.2.0 // indirect
	github.com/blakesmith/ar v0.0.0-20190502131153-809d4375e1fb // indirect
	github.com/blizzy78/varnamelen v0.8.0 // indirect
	github.com/bombsimon/wsl/v3 v3.3.0 // indirect
	github.com/breml/bidichk v0.2.3 // indirect
	github.com/breml/errchkjson v0.3.0 // indirect
	github.com/butuzov/ireturn v0.1.1 // indirect
	github.com/caarlos0/ctrlc v1.0.0 // indirect
	github.com/caarlos0/env/v6 v6.9.2 // indirect
	github.com/caarlos0/go-reddit/v3 v3.0.1 // indirect
	github.com/caarlos0/go-shellwords v1.0.12 // indirect
	github.com/cavaliergopher/cpio v1.0.1 // indirect
	github.com/cenkalti/backoff/v4 v4.1.3 // indirect
	github.com/cespare/xxhash/v2 v2.1.2 // indirect
	github.com/charithe/durationcheck v0.0.9 // indirect
	github.com/chavacava/garif v0.0.0-20220316182200-5cad0b5181d4 // indirect
	github.com/cpuguy83/go-md2man/v2 v2.0.1 // indirect
	github.com/daixiang0/gci v0.3.3 // indirect
	github.com/davecgh/go-spew v1.1.1 // indirect
	github.com/denis-tingaikin/go-header v0.4.3 // indirect
	github.com/dghubble/go-twitter v0.0.0-20211115160449-93a8679adecb // indirect
	github.com/dghubble/oauth1 v0.7.1 // indirect
	github.com/dghubble/sling v1.4.0 // indirect
	github.com/dimchansky/utfbom v1.1.1 // indirect
	github.com/dnephin/pflag v1.0.7 // indirect
	github.com/emirpasic/gods v1.12.0 // indirect
	github.com/esimonov/ifshort v1.0.4 // indirect
	github.com/ettle/strcase v0.1.1 // indirect
	github.com/fatih/color v1.13.0 // indirect
	github.com/fatih/structtag v1.2.0 // indirect
	github.com/firefart/nonamedreturns v1.0.1 // indirect
	github.com/fsnotify/fsnotify v1.5.4 // indirect
	github.com/fzipp/gocyclo v0.5.1 // indirect
	github.com/go-critic/go-critic v0.6.3 // indirect
	github.com/go-git/gcfg v1.5.0 // indirect
	github.com/go-git/go-billy/v5 v5.3.1 // indirect
	github.com/go-git/go-git/v5 v5.4.2 // indirect
	github.com/go-telegram-bot-api/telegram-bot-api v4.6.4+incompatible // indirect
	github.com/go-toolsmith/astcast v1.0.0 // indirect
	github.com/go-toolsmith/astcopy v1.0.0 // indirect
	github.com/go-toolsmith/astequal v1.0.1 // indirect
	github.com/go-toolsmith/astfmt v1.0.0 // indirect
	github.com/go-toolsmith/astp v1.0.0 // indirect
	github.com/go-toolsmith/strparse v1.0.0 // indirect
	github.com/go-toolsmith/typep v1.0.2 // indirect
	github.com/go-xmlfmt/xmlfmt v0.0.0-20191208150333-d5b6f63a941b // indirect
	github.com/gobwas/glob v0.2.3 // indirect
	github.com/gofrs/flock v0.8.1 // indirect
	github.com/golang-jwt/jwt/v4 v4.2.0 // indirect
	github.com/golang/groupcache v0.0.0-20210331224755-41bb18bfe9da // indirect
	github.com/golang/protobuf v1.5.2 // indirect
	github.com/golangci/check v0.0.0-20180506172741-cfe4005ccda2 // indirect
	github.com/golangci/dupl v0.0.0-20180902072040-3e9179ac440a // indirect
	github.com/golangci/go-misc v0.0.0-20220329215616-d24fe342adfe // indirect
	github.com/golangci/gofmt v0.0.0-20190930125516-244bba706f1a // indirect
	github.com/golangci/lint-1 v0.0.0-20191013205115-297bf364a8e0 // indirect
	github.com/golangci/maligned v0.0.0-20180506175553-b1d89398deca // indirect
	github.com/golangci/misspell v0.3.5 // indirect
	github.com/golangci/revgrep v0.0.0-20210930125155-c22e5001d4f2 // indirect
	github.com/golangci/unconvert v0.0.0-20180507085042-28b1c447d1f4 // indirect
	github.com/google/go-cmp v0.5.8 // indirect
	github.com/google/go-github/v44 v44.1.0 // indirect
	github.com/google/go-querystring v1.1.0 // indirect
	github.com/google/rpmpack v0.0.0-20220314092521-38642b5e571e // indirect
	github.com/google/uuid v1.3.0 // indirect
	github.com/google/wire v0.5.0 // indirect
	github.com/googleapis/gax-go/v2 v2.3.0 // indirect
	github.com/gordonklaus/ineffassign v0.0.0-20210914165742-4cc7213b9bc8 // indirect
	github.com/goreleaser/chglog v0.1.2 // indirect
	github.com/goreleaser/fileglob v1.3.0 // indirect
	github.com/goreleaser/nfpm/v2 v2.15.1 // indirect
	github.com/gorilla/websocket v1.4.2 // indirect
	github.com/gostaticanalysis/analysisutil v0.7.1 // indirect
	github.com/gostaticanalysis/comment v1.4.2 // indirect
	github.com/gostaticanalysis/forcetypeassert v0.1.0 // indirect
	github.com/gostaticanalysis/nilerr v0.1.1 // indirect
	github.com/hashicorp/errwrap v1.0.0 // indirect
	github.com/hashicorp/go-cleanhttp v0.5.2 // indirect
	github.com/hashicorp/go-multierror v1.1.1 // indirect
	github.com/hashicorp/go-retryablehttp v0.7.0 // indirect
	github.com/hashicorp/go-version v1.4.0 // indirect
	github.com/hashicorp/hcl v1.0.0 // indirect
	github.com/hexops/gotextdiff v1.0.3 // indirect
	github.com/huandu/xstrings v1.3.2 // indirect
	github.com/iancoleman/orderedmap v0.2.0 // indirect
	github.com/imdario/mergo v0.3.12 // indirect
	github.com/inconshreveable/mousetrap v1.0.0 // indirect
	github.com/jbenet/go-context v0.0.0-20150711004518-d14ea06fba99 // indirect
	github.com/jgautheron/goconst v1.5.1 // indirect
	github.com/jingyugao/rowserrcheck v1.1.1 // indirect
	github.com/jirfag/go-printf-func-name v0.0.0-20200119135958-7558a9eaa5af // indirect
	github.com/jmespath/go-jmespath v0.4.0 // indirect
	github.com/jonboulle/clockwork v0.2.2 // indirect
	github.com/julz/importas v0.1.0 // indirect
	github.com/kballard/go-shellquote v0.0.0-20180428030007-95032a82bc51 // indirect
	github.com/kevinburke/ssh_config v1.1.0 // indirect
	github.com/kisielk/errcheck v1.6.0 // indirect
	github.com/kisielk/gotool v1.0.0 // indirect
	github.com/klauspost/pgzip v1.2.5 // indirect
	github.com/kulti/thelper v0.6.2 // indirect
	github.com/kunwardeep/paralleltest v1.0.3 // indirect
	github.com/kyoh86/exportloopref v0.1.8 // indirect
	github.com/ldez/gomoddirectives v0.2.3 // indirect
	github.com/ldez/tagliatelle v0.3.1 // indirect
	github.com/leonklingele/grouper v1.1.0 // indirect
	github.com/lucasb-eyer/go-colorful v1.2.0 // indirect
	github.com/lufeee/execinquery v1.2.1 // indirect
	github.com/magiconair/properties v1.8.6 // indirect
	github.com/maratori/testpackage v1.0.1 // indirect
	github.com/matoous/godox v0.0.0-20210227103229-6504466cf951 // indirect
	github.com/mattn/go-ieproxy v0.0.1 // indirect
	github.com/mattn/go-runewidth v0.0.13 // indirect
	github.com/matttproud/golang_protobuf_extensions v1.0.1 // indirect
	github.com/mbilski/exhaustivestruct v1.2.0 // indirect
	github.com/mgechev/revive v1.2.1 // indirect
	github.com/mitchellh/copystructure v1.2.0 // indirect
	github.com/mitchellh/go-homedir v1.1.0 // indirect
	github.com/mitchellh/mapstructure v1.5.0 // indirect
	github.com/mitchellh/reflectwalk v1.0.2 // indirect
	github.com/moricho/tparallel v0.2.1 // indirect
	github.com/muesli/mango v0.1.0 // indirect
	github.com/muesli/mango-cobra v1.1.0 // indirect
	github.com/muesli/mango-pflag v0.1.0 // indirect
	github.com/muesli/roff v0.1.0 // indirect
	github.com/nakabonne/nestif v0.3.1 // indirect
	github.com/nbutton23/zxcvbn-go v0.0.0-20210217022336-fa2cb2858354 // indirect
	github.com/nishanths/exhaustive v0.7.11 // indirect
	github.com/nishanths/predeclared v0.2.2 // indirect
	github.com/olekukonko/tablewriter v0.0.5 // indirect
	github.com/pelletier/go-toml/v2 v2.0.0 // indirect
	github.com/phayes/checkstyle v0.0.0-20170904204023-bfd46e6a821d // indirect
	github.com/pkg/errors v0.9.1 // indirect
	github.com/pmezard/go-difflib v1.0.0 // indirect
	github.com/polyfloyd/go-errorlint v1.0.0 // indirect
	github.com/prometheus/client_golang v1.12.1 // indirect
	github.com/prometheus/client_model v0.2.0 // indirect
	github.com/prometheus/common v0.32.1 // indirect
	github.com/prometheus/procfs v0.7.3 // indirect
	github.com/quasilyte/go-ruleguard v0.3.16-0.20220213074421-6aa060fab41a // indirect
	github.com/quasilyte/gogrep v0.0.0-20220120141003-628d8b3623b5 // indirect
	github.com/quasilyte/regex/syntax v0.0.0-20200407221936-30656e2c4a95 // indirect
	github.com/quasilyte/stdinfo v0.0.0-20220114132959-f7386bf02567 // indirect
	github.com/rivo/uniseg v0.2.0 // indirect
	github.com/russross/blackfriday v1.5.2 // indirect
	github.com/russross/blackfriday/v2 v2.1.0 // indirect
	github.com/ryancurrah/gomodguard v1.2.3 // indirect
	github.com/ryanrolds/sqlclosecheck v0.3.0 // indirect
	github.com/sanposhiho/wastedassign/v2 v2.0.6 // indirect
	github.com/securego/gosec/v2 v2.11.0 // indirect
	github.com/sergi/go-diff v1.2.0 // indirect
	github.com/shazow/go-diff v0.0.0-20160112020656-b6b7b6733b8c // indirect
	github.com/sirupsen/logrus v1.8.1 // indirect
	github.com/sivchari/containedctx v1.0.2 // indirect
	github.com/sivchari/tenv v1.5.0 // indirect
	github.com/slack-go/slack v0.10.3 // indirect
	github.com/sonatard/noctx v0.0.1 // indirect
	github.com/sourcegraph/go-diff v0.6.1 // indirect
	github.com/spf13/afero v1.8.2 // indirect
	github.com/spf13/cast v1.4.1 // indirect
	github.com/spf13/jwalterweatherman v1.1.0 // indirect
	github.com/spf13/viper v1.11.0 // indirect
	github.com/ssgreg/nlreturn/v2 v2.2.1 // indirect
	github.com/stbenjam/no-sprintf-host-port v0.1.1 // indirect
	github.com/stretchr/objx v0.2.0 // indirect
	github.com/subosito/gotenv v1.2.0 // indirect
	github.com/sylvia7788/contextcheck v1.0.4 // indirect
	github.com/tdakkota/asciicheck v0.1.1 // indirect
	github.com/technoweenie/multipartstreamer v1.0.1 // indirect
	github.com/tetafro/godot v1.4.11 // indirect
	github.com/timakin/bodyclose v0.0.0-20210704033933-f49887972144 // indirect
	github.com/tomarrell/wrapcheck/v2 v2.6.1 // indirect
	github.com/tommy-muehle/go-mnd/v2 v2.5.0 // indirect
	github.com/ulikunitz/xz v0.5.10 // indirect
	github.com/ultraware/funlen v0.0.3 // indirect
	github.com/ultraware/whitespace v0.0.5 // indirect
	github.com/uudashr/gocognit v1.0.5 // indirect
	github.com/xanzy/go-gitlab v0.65.0 // indirect
	github.com/xanzy/ssh-agent v0.3.1 // indirect
	github.com/yagipy/maintidx v1.0.0 // indirect
	github.com/yeya24/promlinter v0.2.0 // indirect
	gitlab.com/bosi/decorder v0.2.1 // indirect
	go.opencensus.io v0.23.0 // indirect
	gocloud.dev v0.24.0 // indirect
	golang.org/x/crypto v0.0.0-20220411220226-7b82a4e95df4 // indirect
	golang.org/x/exp/typeparams v0.0.0-20220218215828-6cf2b201936e // indirect
	golang.org/x/mod v0.6.0-dev.0.20220106191415-9b9b3d81d5e3 // indirect
	golang.org/x/net v0.0.0-20220412020605-290c469a71a5 // indirect
	golang.org/x/oauth2 v0.0.0-20220524215830-622c5d57e401 // indirect
	golang.org/x/sync v0.0.0-20210220032951-036812b2e83c // indirect
	golang.org/x/sys v0.0.0-20220422013727-9388b58f7150 // indirect
	golang.org/x/time v0.0.0-20211116232009-f0f3c7e86c11 // indirect
	golang.org/x/xerrors v0.0.0-20220411194840-2f41105eb62f // indirect
	google.golang.org/api v0.74.0 // indirect
	google.golang.org/appengine v1.6.7 // indirect
	google.golang.org/genproto v0.0.0-20220407144326-9054f6ed7bac // indirect
	google.golang.org/grpc v1.45.0 // indirect
	google.golang.org/protobuf v1.28.0 // indirect
	gopkg.in/alexcesaro/quotedprintable.v3 v3.0.0-20150716171945-2caba252f4dc // indirect
	gopkg.in/ini.v1 v1.66.4 // indirect
	gopkg.in/mail.v2 v2.3.1 // indirect
	gopkg.in/warnings.v0 v0.1.2 // indirect
	gopkg.in/yaml.v2 v2.4.0 // indirect
	gopkg.in/yaml.v3 v3.0.0 // indirect
	honnef.co/go/tools v0.3.1 // indirect
	mvdan.cc/gofumpt v0.3.1 // indirect
	mvdan.cc/interfacer v0.0.0-20180901003855-c20040233aed // indirect
	mvdan.cc/lint v0.0.0-20170908181259-adc824a0674b // indirect
	mvdan.cc/unparam v0.0.0-20211214103731-d0ef000c54e5 // indirect
)
